Place,WeightClassKg,Name,State,Sex,BodyweightKg,Best3BenchKg,Best3DeadliftKg,TotalKg,Best3SquatKg,Division,Event,Equipment,BirthDate
1,60,Brittany Dorsey,OH,F,58.51,72.5,145,342.5,125,wnov,SBD,Wraps,
1,60,Brittany Dorsey,OH,F,58.51,72.5,145,342.5,125,wopen,SBD,Wraps,
1,60,Brittany Dorsey,OH,F,58.51,72.5,145,342.5,125,wpure,SBD,Wraps,
1,60,Brittany Dorsey,OH,F,58.51,72.5,145,342.5,125,wsm2,SBD,Wraps,
1,60,Brittany Dorsey,OH,F,58.51,72.5,145,342.5,125,wsmp,SBD,Wraps,
1,90+,Victoria Schultz,OH,F,113.62,55,115,170,,wsm2,BD,Raw,
1,90,Carol Hill,OH,F,89.22,50,100,150,,wm1,BD,Raw,
1,67.5,Gloria Stir,OH,F,67,40,70,110,,wm3,BD,Raw,
2,90,Marti Galyen,OH,F,89.68,35,82.5,117.5,,wm1,BD,Raw,
1,90,Emily Bawer,OH,F,83.64,,67.5,67.5,,wdlint,D,Raw,
1,67.5,Jamie Mangas,OH,F,66.63,77.5,137.5,332.5,117.5,wsm2,SBD,Wraps,
1,67.5,Jamie Mangas,OH,F,66.63,77.5,137.5,332.5,117.5,wsmp,SBD,Wraps,
1,90+,Valencia Griffin,OH,F,97.79,80,162.5,355,112.5,wsm1,SBD,Wraps,
1,90+,Diane McClaskey,OH,F,95.89,71,155,351,125,retrowsm2,SBD,Raw,
1,56,Kennedy Clark,OH,F,55.97,50,107.5,240,82.5,wteen,SBD,Wraps,
1,82.5,Samantha Berkhofer,OH,F,79.15,57.5,132.5,285,95,wm1,SBD,Wraps,
1,60,Teresa Williams,OH,F,56.7,45,92.5,222.5,85,wnov,SBD,Wraps,
1,90+,Victoria Schultz,OH,F,113.62,55,115,290,120,wsm2,SBD,Wraps,
1,90+,Nancy Fortner,OH,F,111.13,62.5,120,285,102.5,wnov,SBD,Wraps,
1,82.5,Sadie Shoemaker,OH,F,80.65,35,92.5,197.5,70,wnov,SBD,Wraps,
2,82.5,Teresa Adams,OH,F,79.42,37.5,72.5,162.5,52.5,wnov,SBD,Wraps,
1,90+,Valencia Griffin,OH,F,97.79,80,162.5,242.5,,wsm1,BD,Raw,
1,90+,Diane McClaskey,OH,F,95.89,70,155,225,,wsm2,BD,Raw,
1,90+,Robin Akers,OH,F,110.68,42.5,75,117.5,,wm3,BD,Raw,
1,75,Josue Alonso,WI,M,73.03,125,215,340,,int,BD,Raw,
1,75,Josue Alonso,WI,M,73.03,125,215,340,,nov,BD,Raw,
1,75,Josue Alonso,WI,M,73.03,125,215,340,,open,BD,Raw,
1,75,Josue Alonso,WI,M,73.03,125,215,340,,pure,BD,Raw,
1,82.5,Pablo Alonso,WI,M,82.1,127.5,225,352.5,,int,BD,Raw,
1,82.5,Pablo Alonso,WI,M,82.1,127.5,225,352.5,,nov,BD,Raw,
1,82.5,Pablo Alonso,WI,M,82.1,127.5,225,352.5,,open,BD,Raw,
1,82.5,Pablo Alonso,WI,M,82.1,127.5,225,352.5,,pure,BD,Raw,
1,60,Isaiah Carter,OH,M,58.51,132.5,145,277.5,,pure,BD,Raw,
1,82.5,Larry Donahue,OH,M,76.66,75,110,185,,m4,BD,Raw,
1,100,Shawn Avery,OH,M,99.34,,227.5,227.5,,dlm1,D,Raw,
1,100,Shawn Avery,OH,M,99.34,,227.5,227.5,,dlpure,D,Raw,
1,82.5,Keith Thue,OH,M,76.66,55,,55,,m3,B,Raw,
1,140,Michael Steger,KY,M,127.6,177.5,227.5,405,,m2,BD,Raw,
1,90,Cameron Goddard,IL,M,86.64,142.5,185,327.5,,int,BD,Raw,
1,125,Logan Sheldon,OH,M,120.66,97.5,227.5,325,,nov,BD,Raw,
1,100,Darryl Thomas #1,OH,M,97.98,167.5,280,665,217.5,open,SBD,Wraps,
1,100,Darryl Thomas #1,OH,M,97.98,167.5,280,665,217.5,p+f,SBD,Wraps,
1,100,Darryl Thomas #1,OH,M,97.98,167.5,280,665,217.5,pure,SBD,Wraps,
1,100,Darryl Thomas #1,OH,M,97.98,167.5,280,665,217.5,sm2,SBD,Wraps,
1,100,Darryl Thomas #1,OH,M,97.98,167.5,280,665,217.5,smp,SBD,Wraps,
1,82.5,Anthony Vargas,OH,M,78.97,167.5,222.5,585,195,nov,SBD,Wraps,
1,82.5,Anthony Vargas,OH,M,78.97,167.5,222.5,585,195,sm2,SBD,Wraps,
1,100,Tyler Ackley,OH,M,97.52,167.5,235,612.5,210,nov,SBD,Wraps,
1,67.5,John Zam,OH,M,66.22,130,187.5,482.5,165,retroopen,SBD,Raw,
1,67.5,John Zam,OH,M,66.22,130,187.5,482.5,165,retrosm1,SBD,Raw,
1,110,Noah Baker,OH,M,108.41,135,237.5,615,242.5,jr,SBD,Wraps,
1,140,Michael Steger,KY,M,127.6,177.5,227.5,642.5,237.5,m2,SBD,Wraps,
1,60,Isaiah Carter,OH,M,58.51,132.5,145,412.5,135,open,SBD,Wraps,
1,100,James Harper,OH,M,97.98,122.5,207.5,492.5,162.5,retrom2,SBD,Raw,
1,90,Austin Voshall,OH,M,84.82,105,175,457.5,177.5,teen,SBD,Wraps,
1,110,Aiden Childers,OH,M,107.5,120,202.5,507.5,185,retronov,SBD,Raw,
1,100,Thomas Shaffern,OH,M,97.52,90,200,455,165,int,SBD,Wraps,
1,75,Mark Counts,OH,M,72.57,77.5,180,372.5,115,m3,SBD,Wraps,
1,75,Mark Counts,OH,M,72.57,77.5,180,372.5,115,nov,SBD,Wraps,
1,140+,Aedan Adams,OH,M,165.56,132.5,227.5,532.5,172.5,retrohs,SBD,Raw,
1,82.5,Aaron Schack,OH,M,77.56,87.5,137.5,345,120,jr,SBD,Wraps,
1,75,Andrew Liviskie,OH,M,74.39,55,110,272.5,107.5,retroteen,SBD,Raw,
1,90,Brice Haughn,OH,M,84.01,66,110,278.5,102.5,hs,SBD,Wraps,
1,82.5,Larry Donahue,OH,M,76.66,75,110,255,70,retrom4,SBD,Raw,
1,110,Zaden Jones,OH,M,100.7,52.5,107.5,257.5,97.5,teen,SBD,Wraps,
1,140,Michael Steger,KY,M,127.6,177.5,,177.5,,bpm2,B,Raw,
1,82.5,Herb Yakel,OH,M,81.65,55,,55,,bpm3,B,Raw,
1,125,Logan Sheldon,OH,M,120.66,97.5,227.5,325,,nov,BD,Raw,
